{
  "api_id": "4073975d-a4b7-11ea-86b1-0242ac110007",
  "meta": {
    "count": 23,
    "limit": 20,
    "next": "/v1/Account/MAZTQXZDYWNZBMMJAZZJ/MultiPartyCall/?limit=20&offset=20",
    "offset": 0,
    "previous": null
  },
  "objects": [
    {
      "billed_amount": "0.05000",
      "billed_duration": 600,
      "creation_time": "2020-06-02 04:56:35+00:00",
      "duration": 217,
      "end_time": "2020-06-02 05:00:12+00:00",
      "friendly_name": "mpc 1000",
      "mpc_uuid": "dfc70b4a-e2d0-4e77-a718-e7b57edd5a1a",
      "participants": "/v1/Account/MAZTQXZDYWNZBMMJAZZJ/MultiPartyCall/uuid_dfc70b4a-e2d0-4e77-a718-e7b57edd5a1a/Participant/",
      "recording": null,
      "resource_uri": "/v1/Account/MAZTQXZDYWNZBMMJAZZJ/MultiPartyCall/uuid_dfc70b4a-e2d0-4e77-a718-e7b57edd5a1a/",
      "start_time": "2020-06-02 04:56:35+00:00",
      "status": "ended",
      "stay_alone": false,
      "sub_account": null,
      "termination_cause": "No Active Participants",
      "termination_cause_code": 1000
    },
    {
      "billed_amount": "0.44000",
      "billed_duration": 5280,
      "creation_time": "2020-05-29 12:22:54+00:00",
      "duration": 2632,
      "end_time": "2020-05-29 13:06:46+00:00",
      "friendly_name": "mpc 1000",
      "mpc_uuid": "7e43c116-15cb-42dd-a8b6-ffece71eeb08",
      "participants": "/v1/Account/MAZTQXZDYWNZBMMJAZZJ/MultiPartyCall/uuid_7e43c116-15cb-42dd-a8b6-ffece71eeb08/Participant/",
      "recording": null,
      "resource_uri": "/v1/Account/MAZTQXZDYWNZBMMJAZZJ/MultiPartyCall/uuid_7e43c116-15cb-42dd-a8b6-ffece71eeb08/",
      "start_time": "2020-05-29 12:22:54+00:00",
      "status": "ended",
      "stay_alone": false,
      "sub_account": null,
      "termination_cause": "No Active Participants",
      "termination_cause_code": 1000
    },
    {
      "billed_amount": "0.01000",
      "billed_duration": 120,
      "creation_time": "1975-01-16 03:32:55+00:00",
      "duration": 50,
      "end_time": "2020-05-29 11:30:00+00:00",
      "friendly_name": "MPC169",
      "mpc_uuid": "cb20c56d-35f7-43ff-8c3d-f57610862e07",
      "participants": "/v1/Account/MAZTQXZDYWNZBMMJAZZJ/MultiPartyCall/uuid_cb20c56d-35f7-43ff-8c3d-f57610862e07/Participant/",
      "recording": null,
      "resource_uri": "/v1/Account/MAZTQXZDYWNZBMMJAZZJ/MultiPartyCall/uuid_cb20c56d-35f7-43ff-8c3d-f57610862e07/",
      "start_time": "2020-05-29 11:29:10+00:00",
      "status": "ended",
      "stay_alone": false,
      "sub_account": null,
      "termination_cause": "No Active Participants",
      "termination_cause_code": 1000
    },
    {
      "billed_amount": "0.01000",
      "billed_duration": 120,
      "creation_time": "2020-05-29 11:25:29+00:00",
      "duration": 82,
      "end_time": "2020-05-29 11:26:51+00:00",
      "friendly_name": "MPC167",
      "mpc_uuid": "a6f5e2a9-dbd5-40ad-b664-8f17d38a1023",
      "participants": "/v1/Account/MAZTQXZDYWNZBMMJAZZJ/MultiPartyCall/uuid_a6f5e2a9-dbd5-40ad-b664-8f17d38a1023/Participant/",
      "recording": null,
      "resource_uri": "/v1/Account/MAZTQXZDYWNZBMMJAZZJ/MultiPartyCall/uuid_a6f5e2a9-dbd5-40ad-b664-8f17d38a1023/",
      "start_time": "2020-05-29 11:25:29+00:00",
      "status": "ended",
      "stay_alone": true,
      "sub_account": null,
      "termination_cause": "No Active Participants",
      "termination_cause_code": 1000
    },
    {
      "billed_amount": "0.00500",
      "billed_duration": 60,
      "creation_time": "2020-05-29 11:24:45+00:00",
      "duration": 34,
      "end_time": "2020-05-29 11:25:19+00:00",
      "friendly_name": "MPC166",
      "mpc_uuid": "ab9e69f1-d0f5-4ec2-91b9-692031118395",
      "participants": "/v1/Account/MAZTQXZDYWNZBMMJAZZJ/MultiPartyCall/uuid_ab9e69f1-d0f5-4ec2-91b9-692031118395/Participant/",
      "recording": null,
      "resource_uri": "/v1/Account/MAZTQXZDYWNZBMMJAZZJ/MultiPartyCall/uuid_ab9e69f1-d0f5-4ec2-91b9-692031118395/",
      "start_time": "2020-05-29 11:24:45+00:00",
      "status": "ended",
      "stay_alone": false,
      "sub_account": null,
      "termination_cause": "No Active Participants",
      "termination_cause_code": 1000
    },
    {
      "billed_amount": "0.00500",
      "billed_duration": 60,
      "creation_time": "2020-05-29 09:35:04+00:00",
      "duration": 45,
      "end_time": "2020-05-29 09:35:49+00:00",
      "friendly_name": "MPC126",
      "mpc_uuid": "ecaa3d58-ca81-441b-ba6d-2cba6e3643af",
      "participants": "/v1/Account/MAZTQXZDYWNZBMMJAZZJ/MultiPartyCall/uuid_ecaa3d58-ca81-441b-ba6d-2cba6e3643af/Participant/",
      "recording": null,
      "resource_uri": "/v1/Account/MAZTQXZDYWNZBMMJAZZJ/MultiPartyCall/uuid_ecaa3d58-ca81-441b-ba6d-2cba6e3643af/",
      "start_time": "2020-05-29 09:35:04+00:00",
      "status": "ended",
      "stay_alone": true,
      "sub_account": null,
      "termination_cause": "Hangup API Triggered",
      "termination_cause_code": 3000
    },
    {
      "billed_amount": "0.06000",
      "billed_duration": 720,
      "creation_time": "2020-05-29 09:28:46+00:00",
      "duration": 322,
      "end_time": "2020-05-29 09:34:08+00:00",
      "friendly_name": "MPC125",
      "mpc_uuid": "abb8d614-8fc5-491b-b510-c8128f02540a",
      "participants": "/v1/Account/MAZTQXZDYWNZBMMJAZZJ/MultiPartyCall/uuid_abb8d614-8fc5-491b-b510-c8128f02540a/Participant/",
      "recording": null,
      "resource_uri": "/v1/Account/MAZTQXZDYWNZBMMJAZZJ/MultiPartyCall/uuid_abb8d614-8fc5-491b-b510-c8128f02540a/",
      "start_time": "2020-05-29 09:28:46+00:00",
      "status": "ended",
      "stay_alone": true,
      "sub_account": null,
      "termination_cause": "Hangup API Triggered",
      "termination_cause_code": 3000
    },
    {
      "billed_amount": "0.02500",
      "billed_duration": 300,
      "creation_time": "2020-05-29 09:06:12+00:00",
      "duration": 277,
      "end_time": "2020-05-29 09:10:49+00:00",
      "friendly_name": "MPC124",
      "mpc_uuid": "9db1873f-6214-49a2-9121-cb396a727b82",
      "participants": "/v1/Account/MAZTQXZDYWNZBMMJAZZJ/MultiPartyCall/uuid_9db1873f-6214-49a2-9121-cb396a727b82/Participant/",
      "recording": null,
      "resource_uri": "/v1/Account/MAZTQXZDYWNZBMMJAZZJ/MultiPartyCall/uuid_9db1873f-6214-49a2-9121-cb396a727b82/",
      "start_time": "2020-05-29 09:06:12+00:00",
      "status": "ended",
      "stay_alone": true,
      "sub_account": null,
      "termination_cause": "Hangup API Triggered",
      "termination_cause_code": 3000
    },
    {
      "billed_amount": "0.10000",
      "billed_duration": 1200,
      "creation_time": "2020-05-29 07:09:27+00:00",
      "duration": 1187,
      "end_time": "2020-05-29 07:29:14+00:00",
      "friendly_name": "MPC200",
      "mpc_uuid": "3e19b9e7-a30a-4b2c-ad9d-dabd86354b63",
      "participants": "/v1/Account/MAZTQXZDYWNZBMMJAZZJ/MultiPartyCall/uuid_3e19b9e7-a30a-4b2c-ad9d-dabd86354b63/Participant/",
      "recording": null,
      "resource_uri": "/v1/Account/MAZTQXZDYWNZBMMJAZZJ/MultiPartyCall/uuid_3e19b9e7-a30a-4b2c-ad9d-dabd86354b63/",
      "start_time": "2020-05-29 07:09:27+00:00",
      "status": "ended",
      "stay_alone": true,
      "sub_account": null,
      "termination_cause": "Hangup API Triggered",
      "termination_cause_code": 3000
    },
    {
      "billed_amount": "0.09000",
      "billed_duration": 1080,
      "creation_time": null,
      "duration": 589,
      "end_time": "2020-05-28 18:46:55+00:00",
      "friendly_name": "MPC57",
      "mpc_uuid": "37a56ece-c9c5-41c2-9409-37c86454a11e",
      "participants": "/v1/Account/MAZTQXZDYWNZBMMJAZZJ/MultiPartyCall/uuid_37a56ece-c9c5-41c2-9409-37c86454a11e/Participant/",
      "recording": null,
      "resource_uri": "/v1/Account/MAZTQXZDYWNZBMMJAZZJ/MultiPartyCall/uuid_37a56ece-c9c5-41c2-9409-37c86454a11e/",
      "start_time": "2020-05-28 18:37:06+00:00",
      "status": "ended",
      "stay_alone": false,
      "sub_account": null,
      "termination_cause": "Unknown",
      "termination_cause_code": 0
    },
    {
      "billed_amount": "0.08000",
      "billed_duration": 960,
      "creation_time": null,
      "duration": 946,
      "end_time": "2020-05-28 12:20:13+00:00",
      "friendly_name": "MPC56",
      "mpc_uuid": "3b56137a-28e0-485e-9b38-87ad4bbefd19",
      "participants": "/v1/Account/MAZTQXZDYWNZBMMJAZZJ/MultiPartyCall/uuid_3b56137a-28e0-485e-9b38-87ad4bbefd19/Participant/",
      "recording": null,
      "resource_uri": "/v1/Account/MAZTQXZDYWNZBMMJAZZJ/MultiPartyCall/uuid_3b56137a-28e0-485e-9b38-87ad4bbefd19/",
      "start_time": "2020-05-28 12:04:27+00:00",
      "status": "ended",
      "stay_alone": false,
      "sub_account": null,
      "termination_cause": "Unknown",
      "termination_cause_code": 0
    },
    {
      "billed_amount": "0.09000",
      "billed_duration": 1080,
      "creation_time": null,
      "duration": 1063,
      "end_time": "2020-05-28 10:36:21+00:00",
      "friendly_name": "MPC54",
      "mpc_uuid": "1dc0ee4d-b895-44f1-acb1-777082c8833a",
      "participants": "/v1/Account/MAZTQXZDYWNZBMMJAZZJ/MultiPartyCall/uuid_1dc0ee4d-b895-44f1-acb1-777082c8833a/Participant/",
      "recording": null,
      "resource_uri": "/v1/Account/MAZTQXZDYWNZBMMJAZZJ/MultiPartyCall/uuid_1dc0ee4d-b895-44f1-acb1-777082c8833a/",
      "start_time": "2020-05-28 10:18:38+00:00",
      "status": "ended",
      "stay_alone": false,
      "sub_account": null,
      "termination_cause": "Unknown",
      "termination_cause_code": 0
    },
    {
      "billed_amount": "0.00500",
      "billed_duration": 60,
      "creation_time": null,
      "duration": 39,
      "end_time": "2020-05-28 08:40:58+00:00",
      "friendly_name": "MPC52",
      "mpc_uuid": "44c0ba46-7d30-42b1-b957-36628ba4ae19",
      "participants": "/v1/Account/MAZTQXZDYWNZBMMJAZZJ/MultiPartyCall/uuid_44c0ba46-7d30-42b1-b957-36628ba4ae19/Participant/",
      "recording": null,
      "resource_uri": "/v1/Account/MAZTQXZDYWNZBMMJAZZJ/MultiPartyCall/uuid_44c0ba46-7d30-42b1-b957-36628ba4ae19/",
      "start_time": "2020-05-28 08:40:19+00:00",
      "status": "ended",
      "stay_alone": false,
      "sub_account": null,
      "termination_cause": "Unknown",
      "termination_cause_code": 0
    },
    {
      "billed_amount": "0.04000",
      "billed_duration": 480,
      "creation_time": null,
      "duration": 435,
      "end_time": "2020-05-28 08:19:54+00:00",
      "friendly_name": "RMPC51",
      "mpc_uuid": "726809ec-975a-4660-8902-c7e254ba05fc",
      "participants": "/v1/Account/MAZTQXZDYWNZBMMJAZZJ/MultiPartyCall/uuid_726809ec-975a-4660-8902-c7e254ba05fc/Participant/",
      "recording": null,
      "resource_uri": "/v1/Account/MAZTQXZDYWNZBMMJAZZJ/MultiPartyCall/uuid_726809ec-975a-4660-8902-c7e254ba05fc/",
      "start_time": "2020-05-28 08:12:39+00:00",
      "status": "ended",
      "stay_alone": false,
      "sub_account": null,
      "termination_cause": "Unknown",
      "termination_cause_code": 0
    },
    {
      "billed_amount": "0.00500",
      "billed_duration": 60,
      "creation_time": null,
      "duration": 2,
      "end_time": "2020-05-28 05:47:46+00:00",
      "friendly_name": "kunal",
      "mpc_uuid": "4feac8c5-be6a-45b7-bbd8-2ebca29fabe3",
      "participants": "/v1/Account/MAZTQXZDYWNZBMMJAZZJ/MultiPartyCall/uuid_4feac8c5-be6a-45b7-bbd8-2ebca29fabe3/Participant/",
      "recording": null,
      "resource_uri": "/v1/Account/MAZTQXZDYWNZBMMJAZZJ/MultiPartyCall/uuid_4feac8c5-be6a-45b7-bbd8-2ebca29fabe3/",
      "start_time": "2020-05-28 05:47:44+00:00",
      "status": "ended",
      "stay_alone": false,
      "sub_account": null,
      "termination_cause": "Unknown",
      "termination_cause_code": 0
    },
    {
      "billed_amount": "0.00500",
      "billed_duration": 60,
      "creation_time": null,
      "duration": 6,
      "end_time": "2020-05-28 05:10:31+00:00",
      "friendly_name": "test",
      "mpc_uuid": "509877d6-f667-405f-879d-666885771b4e",
      "participants": "/v1/Account/MAZTQXZDYWNZBMMJAZZJ/MultiPartyCall/uuid_509877d6-f667-405f-879d-666885771b4e/Participant/",
      "recording": null,
      "resource_uri": "/v1/Account/MAZTQXZDYWNZBMMJAZZJ/MultiPartyCall/uuid_509877d6-f667-405f-879d-666885771b4e/",
      "start_time": "2020-05-28 05:10:25+00:00",
      "status": "ended",
      "stay_alone": false,
      "sub_account": null,
      "termination_cause": "Unknown",
      "termination_cause_code": 0
    },
    {
      "billed_amount": "0.00500",
      "billed_duration": 60,
      "creation_time": null,
      "duration": 24,
      "end_time": "2020-05-27 09:16:36+00:00",
      "friendly_name": "MPC1212",
      "mpc_uuid": "8c80cb37-5ff2-48b3-88b4-7d048cbefd9b",
      "participants": "/v1/Account/MAZTQXZDYWNZBMMJAZZJ/MultiPartyCall/uuid_8c80cb37-5ff2-48b3-88b4-7d048cbefd9b/Participant/",
      "recording": null,
      "resource_uri": "/v1/Account/MAZTQXZDYWNZBMMJAZZJ/MultiPartyCall/uuid_8c80cb37-5ff2-48b3-88b4-7d048cbefd9b/",
      "start_time": "2020-05-27 09:16:12+00:00",
      "status": "ended",
      "stay_alone": false,
      "sub_account": null,
      "termination_cause": "Unknown",
      "termination_cause_code": 0
    },
    {
      "billed_amount": "0.19000",
      "billed_duration": 2280,
      "creation_time": null,
      "duration": 2221,
      "end_time": "2020-05-26 12:26:24+00:00",
      "friendly_name": "MPC122",
      "mpc_uuid": "41f7d27f-7849-4e72-a535-097988b1d6f7",
      "participants": "/v1/Account/MAZTQXZDYWNZBMMJAZZJ/MultiPartyCall/uuid_41f7d27f-7849-4e72-a535-097988b1d6f7/Participant/",
      "recording": null,
      "resource_uri": "/v1/Account/MAZTQXZDYWNZBMMJAZZJ/MultiPartyCall/uuid_41f7d27f-7849-4e72-a535-097988b1d6f7/",
      "start_time": "2020-05-26 11:49:23+00:00",
      "status": "ended",
      "stay_alone": false,
      "sub_account": null,
      "termination_cause": "Unknown",
      "termination_cause_code": 0
    },
    {
      "billed_amount": "0.03500",
      "billed_duration": 420,
      "creation_time": null,
      "duration": 381,
      "end_time": "2020-05-26 11:58:51+00:00",
      "friendly_name": "MPC123",
      "mpc_uuid": "bb03cbe5-0907-4db7-a22c-d6d04ea228be",
      "participants": "/v1/Account/MAZTQXZDYWNZBMMJAZZJ/MultiPartyCall/uuid_bb03cbe5-0907-4db7-a22c-d6d04ea228be/Participant/",
      "recording": null,
      "resource_uri": "/v1/Account/MAZTQXZDYWNZBMMJAZZJ/MultiPartyCall/uuid_bb03cbe5-0907-4db7-a22c-d6d04ea228be/",
      "start_time": "2020-05-26 11:52:30+00:00",
      "status": "ended",
      "stay_alone": false,
      "sub_account": null,
      "termination_cause": "Unknown",
      "termination_cause_code": 0
    },
    {
      "billed_amount": "0.34000",
      "billed_duration": 4080,
      "creation_time": null,
      "duration": 4072,
      "end_time": "2020-05-26 11:41:54+00:00",
      "friendly_name": "MPC121",
      "mpc_uuid": "0f619532-c8c8-48d7-a166-aede4839683d",
      "participants": "/v1/Account/MAZTQXZDYWNZBMMJAZZJ/MultiPartyCall/uuid_0f619532-c8c8-48d7-a166-aede4839683d/Participant/",
      "recording": null,
      "resource_uri": "/v1/Account/MAZTQXZDYWNZBMMJAZZJ/MultiPartyCall/uuid_0f619532-c8c8-48d7-a166-aede4839683d/",
      "start_time": "2020-05-26 10:34:02+00:00",
      "status": "ended",
      "stay_alone": false,
      "sub_account": null,
      "termination_cause": "Unknown",
      "termination_cause_code": 0
    }
  ]
}